{
  "warnings": [
    {
      "file": "/Users/anton/Desktop/RatingView/Sources/RatingView/RatingElementView.swift",
      "line": 12,
      "symbol": "RatingElementView.ratingMask",
      "symbol_kind": "source.lang.swift.decl.var.instance",
      "warning": "undocumented"
    },
    {
      "file": "/Users/anton/Desktop/RatingView/Sources/RatingView/RatingElementView.swift",
      "line": 13,
      "symbol": "RatingElementView.fillAmount",
      "symbol_kind": "source.lang.swift.decl.var.instance",
      "warning": "undocumented"
    },
    {
      "file": "/Users/anton/Desktop/RatingView/Sources/RatingView/RatingElementView.swift",
      "line": 14,
      "symbol": "RatingElementView.filledColor",
      "symbol_kind": "source.lang.swift.decl.var.instance",
      "warning": "undocumented"
    },
    {
      "file": "/Users/anton/Desktop/RatingView/Sources/RatingView/RatingElementView.swift",
      "line": 15,
      "symbol": "RatingElementView.notFilledColor",
      "symbol_kind": "source.lang.swift.decl.var.instance",
      "warning": "undocumented"
    },
    {
      "file": "/Users/anton/Desktop/RatingView/Sources/RatingView/RatingView.swift",
      "line": 12,
      "symbol": "RatingView.rating",
      "symbol_kind": "source.lang.swift.decl.var.instance",
      "warning": "undocumented"
    },
    {
      "file": "/Users/anton/Desktop/RatingView/Sources/RatingView/RatingView.swift",
      "line": 13,
      "symbol": "RatingView.ratingMask",
      "symbol_kind": "source.lang.swift.decl.var.instance",
      "warning": "undocumented"
    },
    {
      "file": "/Users/anton/Desktop/RatingView/Sources/RatingView/RatingView.swift",
      "line": 14,
      "symbol": "RatingView.ratingElementCount",
      "symbol_kind": "source.lang.swift.decl.var.instance",
      "warning": "undocumented"
    },
    {
      "file": "/Users/anton/Desktop/RatingView/Sources/RatingView/RatingView.swift",
      "line": 15,
      "symbol": "RatingView.horizontalSpace",
      "symbol_kind": "source.lang.swift.decl.var.instance",
      "warning": "undocumented"
    },
    {
      "file": "/Users/anton/Desktop/RatingView/Sources/RatingView/RatingView.swift",
      "line": 16,
      "symbol": "RatingView.filledColor",
      "symbol_kind": "source.lang.swift.decl.var.instance",
      "warning": "undocumented"
    },
    {
      "file": "/Users/anton/Desktop/RatingView/Sources/RatingView/RatingView.swift",
      "line": 17,
      "symbol": "RatingView.notFilledColor",
      "symbol_kind": "source.lang.swift.decl.var.instance",
      "warning": "undocumented"
    },
    {
      "file": "/Users/anton/Desktop/RatingView/Sources/RatingView/RatingView.swift",
      "line": 18,
      "symbol": "RatingView.onDidRate",
      "symbol_kind": "source.lang.swift.decl.var.instance",
      "warning": "undocumented"
    },
    {
      "file": "/Users/anton/Desktop/RatingView/Sources/RatingView/RatingView.swift",
      "line": 59,
      "symbol": "RatingView.didRate(_:)",
      "symbol_kind": "source.lang.swift.decl.function.method.instance",
      "warning": "undocumented"
    },
    {
      "file": "/Users/anton/Desktop/RatingView/Sources/RatingView/RatingView.swift",
      "line": 63,
      "symbol": "RatingView.getFillAmount(forIndex:)",
      "symbol_kind": "source.lang.swift.decl.function.method.instance",
      "warning": "undocumented"
    },
    {
      "file": "/Users/anton/Desktop/RatingView/Sources/RatingView/Shapes/Star.swift",
      "line": 10,
      "symbol": "Star",
      "symbol_kind": "source.lang.swift.decl.struct",
      "warning": "undocumented"
    },
    {
      "file": "/Users/anton/Desktop/RatingView/Sources/RatingView/Shapes/Star.swift",
      "line": 11,
      "symbol": "Star.sides",
      "symbol_kind": "source.lang.swift.decl.var.instance",
      "warning": "undocumented"
    },
    {
      "file": "/Users/anton/Desktop/RatingView/Sources/RatingView/Shapes/Star.swift",
      "line": 12,
      "symbol": "Star.innerRadiusDivider",
      "symbol_kind": "source.lang.swift.decl.var.instance",
      "warning": "undocumented"
    },
    {
      "file": "/Users/anton/Desktop/RatingView/Sources/RatingView/Shapes/Star.swift",
      "line": 13,
      "symbol": "Star.outerRadiusDivider",
      "symbol_kind": "source.lang.swift.decl.var.instance",
      "warning": "undocumented"
    },
    {
      "file": "/Users/anton/Desktop/RatingView/Sources/RatingView/Shapes/Star.swift",
      "line": 53,
      "symbol": "Star.degree2Radian(_:)",
      "symbol_kind": "source.lang.swift.decl.function.method.instance",
      "warning": "undocumented"
    },
    {
      "file": "/Users/anton/Desktop/RatingView/Sources/RatingView/Shapes/Star.swift",
      "line": 57,
      "symbol": "Star.polygonPointArray(sides:x:y:radius:adjustment:)",
      "symbol_kind": "source.lang.swift.decl.function.method.instance",
      "warning": "undocumented"
    }
  ],
  "source_directory": "/Users/anton/Desktop/RatingView"
}